C:\Users\79272\Desktop\dev2\src\main\java\PUT\PutUpdate.java
C:\Users\79272\Desktop\dev2\src\main\java\TestLauncher.java
C:\Users\79272\Desktop\dev2\src\main\java\DELETE\DeleteUser.java
C:\Users\79272\Desktop\dev2\src\main\java\POST\CreateUser.java
C:\Users\79272\Desktop\dev2\src\main\java\GetUser\GetUser.java
C:\Users\79272\Desktop\dev2\src\main\java\PATCH\UpdateUser.java
